…
<!-- Q4 -->

<div class="modal fade bs-example-modal-lg" id="dH1CM37sywXMfb6I5aK8" tabindex="-1" role="dialog" aria-labelledby="dH1CM37sywXMfb6I5aK8-title"><div class="modal-dialog modal-lg" role="document"><div class="modal-content"><div class="modal-header"><button type="button" class="close" data-dismiss="modal" aria-label="Close"><span aria-hidden="true">&times;</span></button><h4 class="modal-title" id="dH1CM37sywXMfb6I5aK8-title">Solution</h4></div><div class="modal-body">

```{.r .fold-show}
mdp$policyIte(gamma = 0.9, theta = 0.9)
df <- left_join(mdp$getStateValues(), mdp$getPolicy(), by = "state") %>% 
   select(-pr) %>% 
   separate(state, into = c("x", "y"), sep = ",", remove = F, convert = T) %>% 
   mutate(a = as.numeric(action))
df
#> # A tibble: 441 × 6
#>    state     x     y     v action     a
#>    <chr> <int> <int> <dbl> <chr>  <dbl>
#>  1 0,0       0     0  531. 0          0
#>  2 0,1       0     1  541. 0          0
#>  3 0,10      0    10  622. -3        -3
#>  4 0,11      0    11  629. -3        -3
#>  5 0,12      0    12  634. -3        -3
#>  6 0,13      0    13  639. -4        -4
#>  7 0,14      0    14  643. -4        -4
#>  8 0,15      0    15  647. -4        -4
#>  9 0,16      0    16  651. -5        -5
#> 10 0,17      0    17  654. -5        -5
#> # … with 431 more rows
#> # ℹ Use `print(n = ...)` to see more rows
…
