Module 6 Monte Carlo methods for prediction and control | Reinforcement Learning for Business (RL)
…
Figure 6.5: Optimal policy for the MDP.

Note in general we change the price based on a diagonal line running from upper-left to lower-right. Some time two prices oscillate given a time due to state-values close to each other.

The best inventory level to order can be found by searching among the state-values at time one.

res <- dfMDP %>% 
   filter(t == 1) %>% 
   arrange(desc(v)) %>% 
   print()
#> # A tibble: 100 × 5
#>    state   inv     t     v action
#>    <chr> <int> <int> <dbl> <chr> 
#>  1 64,1     64     1  358. 20    
#>  2 62,1     62     1  358. 20    
#>  3 63,1     63     1  358. 20    
#>  4 61,1     61     1  357. 20    
#>  5 65,1     65     1  357. 20    
#>  6 66,1     66     1  355. 20    
#>  7 60,1     60     1  355. 20    
#>  8 67,1     67     1  353. 20    
#>  9 59,1     59     1  352. 20    
#> 10 68,1     68     1  351. 20    
#> # ℹ 90 more rows
…
states <- agent$getStateKeys() %>% setdiff("0") 
states <- states[!str_detect(states, ",15")]
pi = c("25" = 1)
agent$setPolicy(states, pi)
# set last time-step
states <- agent$getStateKeys() %>% setdiff("0") 
states <- states[str_detect(states, ",15")]
pi = c("5" = 1)
agent$setPolicy(states, pi)
# set dummy
pi = c("dummy" = 1)
agent$setPolicy("0", pi)
## Check
agent$getPolicy()
#> # A tibble: 1,501 × 3
#>    state action    pr
#>    <chr> <chr>  <dbl>
#>  1 0     dummy      1
#>  2 1,1   25         1
#>  3 1,10  25         1
#>  4 1,11  25         1
#>  5 1,12  25         1
#>  6 1,13  25         1
#>  7 1,14  25         1
#>  8 1,15  5          1
#>  9 1,2   25         1
#> 10 1,3   25         1
#> # ℹ 1,491 more rows
…
