Module 5 Dynamic programming | Reinforcement Learning for Business (RL)
…
Solution

Solve the problem using value iteration. Check if the policy and state-values are the same as in Question 1. If not why could this be okay?

×

Solution

mdp$policyIte(gamma = 0.9, theta = 0.9)
df <- left_join(mdp$getStateValues(), mdp$getPolicy(), by = "state") %>% 
   select(-pr) %>% 
   separate(state, into = c("x", "y"), sep = ",", remove = F, convert = T) %>% 
   mutate(a = as.numeric(action))
df
#> # A tibble: 441 × 6
#>    state     x     y     v action     a
#>    <chr> <int> <int> <dbl> <chr>  <dbl>
#>  1 0,0       0     0  531. 0          0
#>  2 0,1       0     1  542. 0          0
#>  3 0,10      0    10  623. -3        -3
#>  4 0,11      0    11  629. -3        -3
#>  5 0,12      0    12  634. -3        -3
#>  6 0,13      0    13  639. -4        -4
#>  7 0,14      0    14  644. -4        -4
#>  8 0,15      0    15  647. -4        -4
#>  9 0,16      0    16  651. -5        -5
#> 10 0,17      0    17  654. -5        -5
#> # … with 431 more rows
#> # ℹ Use `print(n = ...)` to see more rows
…
