Module 8 Temporal difference methods for control | Reinforcement Learning for Business (RL)
…
agent$gpiOnPolicySARSA(env, maxEL = 5, verbose = T, gamma = 0.5)
#> (s,a,r,s,a) = (6,6,-1,78,8,6,5), r = 78 oldQ = 0 Q(sN, aN) = 0 newQ = 7.8
#> (s,a,r,s,a) = (8,6,5,50,3,10,2), r = 50 oldQ = 0 Q(sN, aN) = 0 newQ = 5
#> (s,a,r,s,a) = (3,10,2,26,5,12,1), r = 26 oldQ = 0 Q(sN, aN) = 0 newQ = 2.6
#> (s,a,r,s,a) = (5,12,1,28,4,15,4), r = 28 oldQ = 0 Q(sN, aN) = 0 newQ = 2.8
#> (s,a,r,s,a) = (4,15,4,32,4,16,1), r = 32 oldQ = 0 Q(sN, aN) = 0 newQ = 3.2
right_join(agent$getActionValues(), agent$getPolicy()) %>% 
   arrange(desc(q))
#> # A tibble: 3,701 × 5
#>    state action     q     n     pr
#>    <chr> <chr>  <dbl> <dbl>  <dbl>
#>  1 6,6   -1       7.8     1 0.909 
#>  2 8,6   5        5       1 0.909 
#>  3 4,15  4        3.2     1 0.91  
#>  4 5,12  1        2.8     1 0.909 
#>  5 3,10  2        2.6     1 0.911 
#>  6 0,0   0        0       0 1     
#>  7 0,1   -1       0       0 0.05  
#>  8 0,1   0        0       0 0.95  
#>  9 0,10  -1       0       0 0.0167
#> 10 0,10  -2       0       0 0.0167
#> # ℹ 3,691 more rows

agent$gpiOffPolicyQLearning(env, maxEL = 5, verbose = T, gamma = 0.5)
#> (s,a,r,s) = (0,1,-1,8,3,0), r = 8 oldQ = 0 maxQ(sN) = 0 newQ = 0.8
#> (s,a,r,s) = (3,0,2,26,7,1), r = 26 oldQ = 0 maxQ(sN) = 0 newQ = 2.6
#> (s,a,r,s) = (7,1,1,58,9,1), r = 58 oldQ = 0 maxQ(sN) = 0 newQ = 5.8
#> (s,a,r,s) = (9,1,0,30,10,0), r = 30 oldQ = 0 maxQ(sN) = 0 newQ = 3
#> (s,a,r,s) = (10,0,1,38,8,2), r = 38 oldQ = 0 maxQ(sN) = 0 newQ = 3.8
right_join(agent$getActionValues(), agent$getPolicy()) %>% 
   arrange(desc(q))
#> # A tibble: 441 × 5
#>    state action     q     n    pr
#>    <chr> <chr>  <dbl> <dbl> <dbl>
#>  1 7,1   1        5.8     1     1
#>  2 10,0  1        3.8     1     1
#>  3 9,1   0        3       1     1
#>  4 3,0   2        2.6     1     1
#>  5 0,1   -1       0.8     1     1
#>  6 0,0   0        0       0     1
#>  7 0,10  -1       0       0     1
#>  8 0,11  -1       0       0     1
#>  9 0,12  -1       0       0     1
#> 10 0,13  -1       0       0     1
#> # ℹ 431 more rows

agent$gpiOnPolicyExpSARSA(env, maxEL = 5, verbose = T, gamma = 0.5)
#> (s,a,r,s) = (1,6,1,28,5,6), r = 28 oldQ = 0 expQ(sN) = 0 newQ = 2.8
#> (s,a,r,s) = (5,6,-2,76,3,1), r = 76 oldQ = 0 expQ(sN) = 0 newQ = 7.6
#> (s,a,r,s) = (3,1,2,26,1,5), r = 26 oldQ = 0 expQ(sN) = 0 newQ = 2.6
#> (s,a,r,s) = (1,5,-4,32,3,1), r = 32 oldQ = 0 expQ(sN) = 2.39 newQ = 3.32
#> (s,a,r,s) = (3,1,2,36,2,4), r = 36 oldQ = 2.6 expQ(sN) = 0 newQ = 5.94
right_join(agent$getActionValues(), agent$getPolicy()) %>% 
   arrange(desc(q))
#> # A tibble: 3,701 × 5
#>    state action     q     n     pr
#>    <chr> <chr>  <dbl> <dbl>  <dbl>
#>  1 5,6   -2      7.6      1 0.909 
#>  2 3,1   2       5.94     2 0.92  
#>  3 1,5   -4      3.32     1 0.914 
#>  4 1,6   1       2.8      1 0.914 
#>  5 0,0   0       0        0 1     
#>  6 0,1   -1      0        0 0.05  
#>  7 0,1   0       0        0 0.95  
#>  8 0,10  -1      0        0 0.917 
#>  9 0,10  -2      0        0 0.0167
#> 10 0,10  -3      0        0 0.0167
#> # ℹ 3,691 more rows
…
